hw/m5_rtl/r1bes_mem/hardware_test_design/common/cm_sketch_sorted_cam/max_heap/sim/xrun.log
xrun(64): 19.03-s009: (c) Copyright 1995-2019 Cadence Design Systems, Inc.
TOOL:	xrun(64)	19.03-s009: Started on May 14, 2024 at 00:21:29 KST
xrun
	-f xrun_arg
		-access rwc
		-64
		-smartorder
		-SV
		-v93
		-licqueue
		-ALLOWREDEFINITION
		-relax
		-namemap_mixgen
		+DISABLEGENCHK
		-incdir ../header
		-top heap_tb_random
		-f filelist
			/tools/Xilinx/Vivado/2020.2/data/verilog/src/glbl.v
			../src/heap_stage.sv
			../src/heap_store.sv
			../src/heap_top.sv
			./heap_tb_random.sv
		-incdir ../ip/axis_data_fifo/hdl
		-y /tools/Xilinx/Vivado/2020.2/data/verilog/src/unisims
		-cdslib /home/jhpark/workspace/vivado/compile_simlib/cds_unisims_ver.lib
		-top glbl
	-define WAVE
	-define SIM
	-define XILINX
xrun: *W,MLIBEXT: -y option was used without -libext flag.
Recompiling... reason: file './heap_tb_random.sv' is newer than expected.
	expected: Thu May  9 20:07:25 2024
	actual:   Mon May 13 19:14:12 2024
file: ./heap_tb_random.sv
      $fscanf(cnt_trace_file, "%d\n", input_cnt);
            |
xmvlog: *W,NOSYST (./heap_tb_random.sv,66|12): System function '$fscanf' invoked as a task. Return value will be ignored.
      $fscanf(addr_trace_file, "%d\n", input_addr);
            |
xmvlog: *W,NOSYST (./heap_tb_random.sv,67|12): System function '$fscanf' invoked as a task. Return value will be ignored.
	module worklib.heap_tb_random:sv
		errors: 0, warnings: 2
xmvlog: *W,LIBNOU: Library "/tools/Xilinx/Vivado/2020.2/data/verilog/src/unisims" given but not used.
xmvlog: *W,SPDUSD: Include directory ../header given but not used.
xmvlog: *W,SPDUSD: Include directory ../ip/axis_data_fifo/hdl given but not used.
	Total errors/warnings found outside modules and primitives:
		errors: 0, warnings: 3
		Caching library 'worklib' ....... Done
	Elaborating the design hierarchy:
	Top level design units:
		heap_tb_random
		glbl
		Caching library 'worklib' ....... Done
xmelab: *W,DSEMEL: This SystemVerilog design will be simulated as per IEEE 1800-2009 SystemVerilog simulation semantics. Use -disable_sem2009 option for turning off SV 2009 simulation semantics.
	Building instance overlay tables: .................... Done
	Generating native compiled code:
		worklib.heap_tb_random:sv <0x1ce333af>
			streams:  17, words: 16426
	Building instance specific data structures.
	Loading native compiled code:     .................... Done
	Design hierarchy summary:
		                 Instances  Unique
		Modules:                15       5
		Registers:             135      60
		Scalar wires:           75       -
		Vectored wires:        188       -
		Always blocks:          85       8
		Initial blocks:         16      16
		Cont. assignments:      55      24
		Pseudo assignments:    162     162
		Simulation timescale:  1ps
	Writing initial simulation snapshot: worklib.heap_tb_random:sv
Loading snapshot worklib.heap_tb_random:sv .................... Done
xmsim: *W,DSEM2009: This SystemVerilog design is simulated as per IEEE 1800-2009 SystemVerilog simulation semantics. Use -disable_sem2009 option for turning off SV 2009 simulation semantics.
xcelium> source /tools/cadence/XCELIUM1903/tools/xcelium/files/xmsimrc
xcelium> run

///// Print heap (       1) /////
  1:    794  0001b1e
  2:      0  0000000
  3:      0  0000000
  4:      0  0000000
  5:      0  0000000
  6:      0  0000000
  7:      0  0000000
  8:      0  0000000
  9:      0  0000000
 10:      0  0000000
 11:      0  0000000
 12:      0  0000000
 13:      0  0000000
 14:      0  0000000
 15:      0  0000000
 16:      0  0000000
 17:      0  0000000
 18:      0  0000000
 19:      0  0000000
 20:      0  0000000
 21:      0  0000000
 22:      0  0000000
 23:      0  0000000
 24:      0  0000000
 25:      0  0000000
 26:      0  0000000
 27:      0  0000000
 28:      0  0000000
 29:      0  0000000
 30:      0  0000000
 31:      0  0000000
 32:      0  0000000
 33:      0  0000000
 34:      0  0000000
 35:      0  0000000
 36:      0  0000000
 37:      0  0000000
 38:      0  0000000
 39:      0  0000000
 40:      0  0000000
 41:      0  0000000
 42:      0  0000000
 43:      0  0000000
 44:      0  0000000
 45:      0  0000000
 46:      0  0000000
 47:      0  0000000
 48:      0  0000000
 49:      0  0000000
 50:      0  0000000
 51:      0  0000000
 52:      0  0000000
 53:      0  0000000
 54:      0  0000000
 55:      0  0000000
 56:      0  0000000
 57:      0  0000000
 58:      0  0000000
 59:      0  0000000
 60:      0  0000000
 61:      0  0000000
 62:      0  0000000
 63:      0  0000000
///////////////////////////////


///// Print heap (       2) /////
  1:    794  0001b1e
  2:    257  000022f
  3:      0  0000000
  4:      0  0000000
  5:      0  0000000
  6:      0  0000000
  7:      0  0000000
  8:      0  0000000
  9:      0  0000000
 10:      0  0000000
 11:      0  0000000
 12:      0  0000000
 13:      0  0000000
 14:      0  0000000
 15:      0  0000000
 16:      0  0000000
 17:      0  0000000
 18:      0  0000000
 19:      0  0000000
 20:      0  0000000
 21:      0  0000000
 22:      0  0000000
 23:      0  0000000
 24:      0  0000000
 25:      0  0000000
 26:      0  0000000
 27:      0  0000000
 28:      0  0000000
 29:      0  0000000
 30:      0  0000000
 31:      0  0000000
 32:      0  0000000
 33:      0  0000000
 34:      0  0000000
 35:      0  0000000
 36:      0  0000000
 37:      0  0000000
 38:      0  0000000
 39:      0  0000000
 40:      0  0000000
 41:      0  0000000
 42:      0  0000000
 43:      0  0000000
 44:      0  0000000
 45:      0  0000000
 46:      0  0000000
 47:      0  0000000
 48:      0  0000000
 49:      0  0000000
 50:      0  0000000
 51:      0  0000000
 52:      0  0000000
 53:      0  0000000
 54:      0  0000000
 55:      0  0000000
 56:      0  0000000
 57:      0  0000000
 58:      0  0000000
 59:      0  0000000
 60:      0  0000000
 61:      0  0000000
 62:      0  0000000
 63:      0  0000000
///////////////////////////////


///// Print heap (       3) /////
  1:    794  0001b1e
  2:    257  000022f
  3:    549  000191c
  4:      0  0000000
  5:      0  0000000
  6:      0  0000000
  7:      0  0000000
  8:      0  0000000
  9:      0  0000000
 10:      0  0000000
 11:      0  0000000
 12:      0  0000000
 13:      0  0000000
 14:      0  0000000
 15:      0  0000000
 16:      0  0000000
 17:      0  0000000
 18:      0  0000000
 19:      0  0000000
 20:      0  0000000
 21:      0  0000000
 22:      0  0000000
 23:      0  0000000
 24:      0  0000000
 25:      0  0000000
 26:      0  0000000
 27:      0  0000000
 28:      0  0000000
 29:      0  0000000
 30:      0  0000000
 31:      0  0000000
 32:      0  0000000
 33:      0  0000000
 34:      0  0000000
 35:      0  0000000
 36:      0  0000000
 37:      0  0000000
 38:      0  0000000
 39:      0  0000000
 40:      0  0000000
 41:      0  0000000
 42:      0  0000000
 43:      0  0000000
 44:      0  0000000
 45:      0  0000000
 46:      0  0000000
 47:      0  0000000
 48:      0  0000000
 49:      0  0000000
 50:      0  0000000
 51:      0  0000000
 52:      0  0000000
 53:      0  0000000
 54:      0  0000000
 55:      0  0000000
 56:      0  0000000
 57:      0  0000000
 58:      0  0000000
 59:      0  0000000
 60:      0  0000000
 61:      0  0000000
 62:      0  0000000
 63:      0  0000000
///////////////////////////////


///// Print heap (       4) /////
  1:    794  0001b1e
  2:    459  00025b4
  3:    549  000191c
  4:    257  000022f
  5:      0  0000000
  6:      0  0000000
  7:      0  0000000
  8:      0  0000000
  9:      0  0000000
 10:      0  0000000
 11:      0  0000000
 12:      0  0000000
 13:      0  0000000
 14:      0  0000000
 15:      0  0000000
 16:      0  0000000
 17:      0  0000000
 18:      0  0000000
 19:      0  0000000
 20:      0  0000000
 21:      0  0000000
 22:      0  0000000
 23:      0  0000000
 24:      0  0000000
 25:      0  0000000
 26:      0  0000000
 27:      0  0000000
 28:      0  0000000
 29:      0  0000000
 30:      0  0000000
 31:      0  0000000
 32:      0  0000000
 33:      0  0000000
 34:      0  0000000
 35:      0  0000000
 36:      0  0000000
 37:      0  0000000
 38:      0  0000000
 39:      0  0000000
 40:      0  0000000
 41:      0  0000000
 42:      0  0000000
 43:      0  0000000
 44:      0  0000000
 45:      0  0000000
 46:      0  0000000
 47:      0  0000000
 48:      0  0000000
 49:      0  0000000
 50:      0  0000000
 51:      0  0000000
 52:      0  0000000
 53:      0  0000000
 54:      0  0000000
 55:      0  0000000
 56:      0  0000000
 57:      0  0000000
 58:      0  0000000
 59:      0  0000000
 60:      0  0000000
 61:      0  0000000
 62:      0  0000000
 63:      0  0000000
///////////////////////////////


///// Print heap (       5) /////
  1:    794  0001b1e
  2:    459  00025b4
  3:    549  000191c
  4:    257  000022f
  5:    319  0001d75
  6:      0  0000000
  7:      0  0000000
  8:      0  0000000
  9:      0  0000000
 10:      0  0000000
 11:      0  0000000
 12:      0  0000000
 13:      0  0000000
 14:      0  0000000
 15:      0  0000000
 16:      0  0000000
 17:      0  0000000
 18:      0  0000000
 19:      0  0000000
 20:      0  0000000
 21:      0  0000000
 22:      0  0000000
 23:      0  0000000
 24:      0  0000000
 25:      0  0000000
 26:      0  0000000
 27:      0  0000000
 28:      0  0000000
 29:      0  0000000
 30:      0  0000000
 31:      0  0000000
 32:      0  0000000
 33:      0  0000000
 34:      0  0000000
 35:      0  0000000
 36:      0  0000000
 37:      0  0000000
 38:      0  0000000
 39:      0  0000000
 40:      0  0000000
 41:      0  0000000
 42:      0  0000000
 43:      0  0000000
 44:      0  0000000
 45:      0  0000000
 46:      0  0000000
 47:      0  0000000
 48:      0  0000000
 49:      0  0000000
 50:      0  0000000
 51:      0  0000000
 52:      0  0000000
 53:      0  0000000
 54:      0  0000000
 55:      0  0000000
 56:      0  0000000
 57:      0  0000000
 58:      0  0000000
 59:      0  0000000
 60:      0  0000000
 61:      0  0000000
 62:      0  0000000
 63:      0  0000000
///////////////////////////////


///// Print heap (       6) /////
  1:    794  0001b1e
  2:    459  00025b4
  3:    549  000191c
  4:    257  000022f
  5:    319  0001d75
  6:    461  000104c
  7:      0  0000000
  8:      0  0000000
  9:      0  0000000
 10:      0  0000000
 11:      0  0000000
 12:      0  0000000
 13:      0  0000000
 14:      0  0000000
 15:      0  0000000
 16:      0  0000000
 17:      0  0000000
 18:      0  0000000
 19:      0  0000000
 20:      0  0000000
 21:      0  0000000
 22:      0  0000000
 23:      0  0000000
 24:      0  0000000
 25:      0  0000000
 26:      0  0000000
 27:      0  0000000
 28:      0  0000000
 29:      0  0000000
 30:      0  0000000
 31:      0  0000000
 32:      0  0000000
 33:      0  0000000
 34:      0  0000000
 35:      0  0000000
 36:      0  0000000
 37:      0  0000000
 38:      0  0000000
 39:      0  0000000
 40:      0  0000000
 41:      0  0000000
 42:      0  0000000
 43:      0  0000000
 44:      0  0000000
 45:      0  0000000
 46:      0  0000000
 47:      0  0000000
 48:      0  0000000
 49:      0  0000000
 50:      0  0000000
 51:      0  0000000
 52:      0  0000000
 53:      0  0000000
 54:      0  0000000
 55:      0  0000000
 56:      0  0000000
 57:      0  0000000
 58:      0  0000000
 59:      0  0000000
 60:      0  0000000
 61:      0  0000000
 62:      0  0000000
 63:      0  0000000
///////////////////////////////


///// Print heap (       7) /////
  1:    794  0001b1e
  2:    459  00025b4
  3:    549  000191c
  4:    257  000022f
  5:    319  0001d75
  6:    461  000104c
  7:     83  00006c8
  8:      0  0000000
  9:      0  0000000
 10:      0  0000000
 11:      0  0000000
 12:      0  0000000
 13:      0  0000000
 14:      0  0000000
 15:      0  0000000
 16:      0  0000000
 17:      0  0000000
 18:      0  0000000
 19:      0  0000000
 20:      0  0000000
 21:      0  0000000
 22:      0  0000000
 23:      0  0000000
 24:      0  0000000
 25:      0  0000000
 26:      0  0000000
 27:      0  0000000
 28:      0  0000000
 29:      0  0000000
 30:      0  0000000
 31:      0  0000000
 32:      0  0000000
 33:      0  0000000
 34:      0  0000000
 35:      0  0000000
 36:      0  0000000
 37:      0  0000000
 38:      0  0000000
 39:      0  0000000
 40:      0  0000000
 41:      0  0000000
 42:      0  0000000
 43:      0  0000000
 44:      0  0000000
 45:      0  0000000
 46:      0  0000000
 47:      0  0000000
 48:      0  0000000
 49:      0  0000000
 50:      0  0000000
 51:      0  0000000
 52:      0  0000000
 53:      0  0000000
 54:      0  0000000
 55:      0  0000000
 56:      0  0000000
 57:      0  0000000
 58:      0  0000000
 59:      0  0000000
 60:      0  0000000
 61:      0  0000000
 62:      0  0000000
 63:      0  0000000
///////////////////////////////


///// Print heap (       8) /////
  1:    794  0001b1e
  2:    459  00025b4
  3:    549  000191c
  4:    450  00025b0
  5:    319  0001d75
  6:    461  000104c
  7:     83  00006c8
  8:    257  000022f
  9:      0  0000000
 10:      0  0000000
 11:      0  0000000
 12:      0  0000000
 13:      0  0000000
 14:      0  0000000
 15:      0  0000000
 16:      0  0000000
 17:      0  0000000
 18:      0  0000000
 19:      0  0000000
 20:      0  0000000
 21:      0  0000000
 22:      0  0000000
 23:      0  0000000
 24:      0  0000000
 25:      0  0000000
 26:      0  0000000
 27:      0  0000000
 28:      0  0000000
 29:      0  0000000
 30:      0  0000000
 31:      0  0000000
 32:      0  0000000
 33:      0  0000000
 34:      0  0000000
 35:      0  0000000
 36:      0  0000000
 37:      0  0000000
 38:      0  0000000
 39:      0  0000000
 40:      0  0000000
 41:      0  0000000
 42:      0  0000000
 43:      0  0000000
 44:      0  0000000
 45:      0  0000000
 46:      0  0000000
 47:      0  0000000
 48:      0  0000000
 49:      0  0000000
 50:      0  0000000
 51:      0  0000000
 52:      0  0000000
 53:      0  0000000
 54:      0  0000000
 55:      0  0000000
 56:      0  0000000
 57:      0  0000000
 58:      0  0000000
 59:      0  0000000
 60:      0  0000000
 61:      0  0000000
 62:      0  0000000
 63:      0  0000000
///////////////////////////////


///// Print heap (       9) /////
  1:    918  000046e
  2:    794  0001b1e
  3:    549  000191c
  4:    459  00025b4
  5:    319  0001d75
  6:    461  000104c
  7:     83  00006c8
  8:    257  000022f
  9:    450  00025b0
 10:      0  0000000
 11:      0  0000000
 12:      0  0000000
 13:      0  0000000
 14:      0  0000000
 15:      0  0000000
 16:      0  0000000
 17:      0  0000000
 18:      0  0000000
 19:      0  0000000
 20:      0  0000000
 21:      0  0000000
 22:      0  0000000
 23:      0  0000000
 24:      0  0000000
 25:      0  0000000
 26:      0  0000000
 27:      0  0000000
 28:      0  0000000
 29:      0  0000000
 30:      0  0000000
 31:      0  0000000
 32:      0  0000000
 33:      0  0000000
 34:      0  0000000
 35:      0  0000000
 36:      0  0000000
 37:      0  0000000
 38:      0  0000000
 39:      0  0000000
 40:      0  0000000
 41:      0  0000000
 42:      0  0000000
 43:      0  0000000
 44:      0  0000000
 45:      0  0000000
 46:      0  0000000
 47:      0  0000000
 48:      0  0000000
 49:      0  0000000
 50:      0  0000000
 51:      0  0000000
 52:      0  0000000
 53:      0  0000000
 54:      0  0000000
 55:      0  0000000
 56:      0  0000000
 57:      0  0000000
 58:      0  0000000
 59:      0  0000000
 60:      0  0000000
 61:      0  0000000
 62:      0  0000000
 63:      0  0000000
///////////////////////////////


///// Print heap (      10) /////
  1:    925  0001c9c
  2:    918  000046e
  3:    549  000191c
  4:    459  00025b4
  5:    794  0001b1e
  6:    461  000104c
  7:     83  00006c8
  8:    257  000022f
  9:    450  00025b0
 10:    319  0001d75
 11:      0  0000000
 12:      0  0000000
 13:      0  0000000
 14:      0  0000000
 15:      0  0000000
 16:      0  0000000
 17:      0  0000000
 18:      0  0000000
 19:      0  0000000
 20:      0  0000000
 21:      0  0000000
 22:      0  0000000
 23:      0  0000000
 24:      0  0000000
 25:      0  0000000
 26:      0  0000000
 27:      0  0000000
 28:      0  0000000
 29:      0  0000000
 30:      0  0000000
 31:      0  0000000
 32:      0  0000000
 33:      0  0000000
 34:      0  0000000
 35:      0  0000000
 36:      0  0000000
 37:      0  0000000
 38:      0  0000000
 39:      0  0000000
 40:      0  0000000
 41:      0  0000000
 42:      0  0000000
 43:      0  0000000
 44:      0  0000000
 45:      0  0000000
 46:      0  0000000
 47:      0  0000000
 48:      0  0000000
 49:      0  0000000
 50:      0  0000000
 51:      0  0000000
 52:      0  0000000
 53:      0  0000000
 54:      0  0000000
 55:      0  0000000
 56:      0  0000000
 57:      0  0000000
 58:      0  0000000
 59:      0  0000000
 60:      0  0000000
 61:      0  0000000
 62:      0  0000000
 63:      0  0000000
///////////////////////////////


///// Print heap (      11) /////
  1:    925  0001c9c
  2:    918  000046e
  3:    549  000191c
  4:    459  00025b4
  5:    877  0001cc2
  6:    461  000104c
  7:     83  00006c8
  8:    257  000022f
  9:    450  00025b0
 10:    319  0001d75
 11:    794  0001b1e
 12:      0  0000000
 13:      0  0000000
 14:      0  0000000
 15:      0  0000000
 16:      0  0000000
 17:      0  0000000
 18:      0  0000000
 19:      0  0000000
 20:      0  0000000
 21:      0  0000000
 22:      0  0000000
 23:      0  0000000
 24:      0  0000000
 25:      0  0000000
 26:      0  0000000
 27:      0  0000000
 28:      0  0000000
 29:      0  0000000
 30:      0  0000000
 31:      0  0000000
 32:      0  0000000
 33:      0  0000000
 34:      0  0000000
 35:      0  0000000
 36:      0  0000000
 37:      0  0000000
 38:      0  0000000
 39:      0  0000000
 40:      0  0000000
 41:      0  0000000
 42:      0  0000000
 43:      0  0000000
 44:      0  0000000
 45:      0  0000000
 46:      0  0000000
 47:      0  0000000
 48:      0  0000000
 49:      0  0000000
 50:      0  0000000
 51:      0  0000000
 52:      0  0000000
 53:      0  0000000
 54:      0  0000000
 55:      0  0000000
 56:      0  0000000
 57:      0  0000000
 58:      0  0000000
 59:      0  0000000
 60:      0  0000000
 61:      0  0000000
 62:      0  0000000
 63:      0  0000000
///////////////////////////////


///// Print heap (      12) /////
  1:    925  0001c9c
  2:    918  000046e
  3:    549  000191c
  4:    459  00025b4
  5:    877  0001cc2
  6:    496  0001d6c
  7:     83  00006c8
  8:    257  000022f
  9:    450  00025b0
 10:    319  0001d75
 11:    794  0001b1e
 12:    461  000104c
 13:      0  0000000
 14:      0  0000000
 15:      0  0000000
 16:      0  0000000
 17:      0  0000000
 18:      0  0000000
 19:      0  0000000
 20:      0  0000000
 21:      0  0000000
 22:      0  0000000
 23:      0  0000000
 24:      0  0000000
 25:      0  0000000
 26:      0  0000000
 27:      0  0000000
 28:      0  0000000
 29:      0  0000000
 30:      0  0000000
 31:      0  0000000
 32:      0  0000000
 33:      0  0000000
 34:      0  0000000
 35:      0  0000000
 36:      0  0000000
 37:      0  0000000
 38:      0  0000000
 39:      0  0000000
 40:      0  0000000
 41:      0  0000000
 42:      0  0000000
 43:      0  0000000
 44:      0  0000000
 45:      0  0000000
 46:      0  0000000
 47:      0  0000000
 48:      0  0000000
 49:      0  0000000
 50:      0  0000000
 51:      0  0000000
 52:      0  0000000
 53:      0  0000000
 54:      0  0000000
 55:      0  0000000
 56:      0  0000000
 57:      0  0000000
 58:      0  0000000
 59:      0  0000000
 60:      0  0000000
 61:      0  0000000
 62:      0  0000000
 63:      0  0000000
///////////////////////////////


///// Print heap (      13) /////
  1:    925  0001c9c
  2:    918  000046e
  3:    856  0001435
  4:    459  00025b4
  5:    877  0001cc2
  6:    549  000191c
  7:     83  00006c8
  8:    257  000022f
  9:    450  00025b0
 10:    319  0001d75
 11:    794  0001b1e
 12:    461  000104c
 13:    496  0001d6c
 14:      0  0000000
 15:      0  0000000
 16:      0  0000000
 17:      0  0000000
 18:      0  0000000
 19:      0  0000000
 20:      0  0000000
 21:      0  0000000
 22:      0  0000000
 23:      0  0000000
 24:      0  0000000
 25:      0  0000000
 26:      0  0000000
 27:      0  0000000
 28:      0  0000000
 29:      0  0000000
 30:      0  0000000
 31:      0  0000000
 32:      0  0000000
 33:      0  0000000
 34:      0  0000000
 35:      0  0000000
 36:      0  0000000
 37:      0  0000000
 38:      0  0000000
 39:      0  0000000
 40:      0  0000000
 41:      0  0000000
 42:      0  0000000
 43:      0  0000000
 44:      0  0000000
 45:      0  0000000
 46:      0  0000000
 47:      0  0000000
 48:      0  0000000
 49:      0  0000000
 50:      0  0000000
 51:      0  0000000
 52:      0  0000000
 53:      0  0000000
 54:      0  0000000
 55:      0  0000000
 56:      0  0000000
 57:      0  0000000
 58:      0  0000000
 59:      0  0000000
 60:      0  0000000
 61:      0  0000000
 62:      0  0000000
 63:      0  0000000
///////////////////////////////


///// Print heap (      14) /////
  1:    925  0001c9c
  2:    918  000046e
  3:    856  0001435
  4:    459  00025b4
  5:    877  0001cc2
  6:    549  000191c
  7:    586  0001a1b
  8:    257  000022f
  9:    450  00025b0
 10:    319  0001d75
 11:    794  0001b1e
 12:    461  000104c
 13:    496  0001d6c
 14:     83  00006c8
 15:      0  0000000
 16:      0  0000000
 17:      0  0000000
 18:      0  0000000
 19:      0  0000000
 20:      0  0000000
 21:      0  0000000
 22:      0  0000000
 23:      0  0000000
 24:      0  0000000
 25:      0  0000000
 26:      0  0000000
 27:      0  0000000
 28:      0  0000000
 29:      0  0000000
 30:      0  0000000
 31:      0  0000000
 32:      0  0000000
 33:      0  0000000
 34:      0  0000000
 35:      0  0000000
 36:      0  0000000
 37:      0  0000000
 38:      0  0000000
 39:      0  0000000
 40:      0  0000000
 41:      0  0000000
 42:      0  0000000
 43:      0  0000000
 44:      0  0000000
 45:      0  0000000
 46:      0  0000000
 47:      0  0000000
 48:      0  0000000
 49:      0  0000000
 50:      0  0000000
 51:      0  0000000
 52:      0  0000000
 53:      0  0000000
 54:      0  0000000
 55:      0  0000000
 56:      0  0000000
 57:      0  0000000
 58:      0  0000000
 59:      0  0000000
 60:      0  0000000
 61:      0  0000000
 62:      0  0000000
 63:      0  0000000
///////////////////////////////


///// Print heap (      15) /////
  1:    925  0001c9c
  2:    918  000046e
  3:    856  0001435
  4:    459  00025b4
  5:    877  0001cc2
  6:    549  000191c
  7:    770  0001f5c
  8:    257  000022f
  9:    450  00025b0
 10:    319  0001d75
 11:    794  0001b1e
 12:    461  000104c
 13:    496  0001d6c
 14:     83  00006c8
 15:    586  0001a1b
 16:      0  0000000
 17:      0  0000000
 18:      0  0000000
 19:      0  0000000
 20:      0  0000000
 21:      0  0000000
 22:      0  0000000
 23:      0  0000000
 24:      0  0000000
 25:      0  0000000
 26:      0  0000000
 27:      0  0000000
 28:      0  0000000
 29:      0  0000000
 30:      0  0000000
 31:      0  0000000
 32:      0  0000000
 33:      0  0000000
 34:      0  0000000
 35:      0  0000000
 36:      0  0000000
 37:      0  0000000
 38:      0  0000000
 39:      0  0000000
 40:      0  0000000
 41:      0  0000000
 42:      0  0000000
 43:      0  0000000
 44:      0  0000000
 45:      0  0000000
 46:      0  0000000
 47:      0  0000000
 48:      0  0000000
 49:      0  0000000
 50:      0  0000000
 51:      0  0000000
 52:      0  0000000
 53:      0  0000000
 54:      0  0000000
 55:      0  0000000
 56:      0  0000000
 57:      0  0000000
 58:      0  0000000
 59:      0  0000000
 60:      0  0000000
 61:      0  0000000
 62:      0  0000000
 63:      0  0000000
///////////////////////////////


///// Print heap (      16) /////
  1:    928  0002283
  2:    925  0001c9c
  3:    856  0001435
  4:    918  000046e
  5:    877  0001cc2
  6:    549  000191c
  7:    770  0001f5c
  8:    459  00025b4
  9:    450  00025b0
 10:    319  0001d75
 11:    794  0001b1e
 12:    461  000104c
 13:    496  0001d6c
 14:     83  00006c8
 15:    586  0001a1b
 16:    257  000022f
 17:      0  0000000
 18:      0  0000000
 19:      0  0000000
 20:      0  0000000
 21:      0  0000000
 22:      0  0000000
 23:      0  0000000
 24:      0  0000000
 25:      0  0000000
 26:      0  0000000
 27:      0  0000000
 28:      0  0000000
 29:      0  0000000
 30:      0  0000000
 31:      0  0000000
 32:      0  0000000
 33:      0  0000000
 34:      0  0000000
 35:      0  0000000
 36:      0  0000000
 37:      0  0000000
 38:      0  0000000
 39:      0  0000000
 40:      0  0000000
 41:      0  0000000
 42:      0  0000000
 43:      0  0000000
 44:      0  0000000
 45:      0  0000000
 46:      0  0000000
 47:      0  0000000
 48:      0  0000000
 49:      0  0000000
 50:      0  0000000
 51:      0  0000000
 52:      0  0000000
 53:      0  0000000
 54:      0  0000000
 55:      0  0000000
 56:      0  0000000
 57:      0  0000000
 58:      0  0000000
 59:      0  0000000
 60:      0  0000000
 61:      0  0000000
 62:      0  0000000
 63:      0  0000000
///////////////////////////////


///// Print heap (      17) /////
  1:    928  0002283
  2:    925  0001c9c
  3:    856  0001435
  4:    918  000046e
  5:    877  0001cc2
  6:    549  000191c
  7:    770  0001f5c
  8:    805  0000a05
  9:    450  00025b0
 10:    319  0001d75
 11:    794  0001b1e
 12:    461  000104c
 13:    496  0001d6c
 14:     83  00006c8
 15:    586  0001a1b
 16:    257  000022f
 17:    459  00025b4
 18:      0  0000000
 19:      0  0000000
 20:      0  0000000
 21:      0  0000000
 22:      0  0000000
 23:      0  0000000
 24:      0  0000000
 25:      0  0000000
 26:      0  0000000
 27:      0  0000000
 28:      0  0000000
 29:      0  0000000
 30:      0  0000000
 31:      0  0000000
 32:      0  0000000
 33:      0  0000000
 34:      0  0000000
 35:      0  0000000
 36:      0  0000000
 37:      0  0000000
 38:      0  0000000
 39:      0  0000000
 40:      0  0000000
 41:      0  0000000
 42:      0  0000000
 43:      0  0000000
 44:      0  0000000
 45:      0  0000000
 46:      0  0000000
 47:      0  0000000
 48:      0  0000000
 49:      0  0000000
 50:      0  0000000
 51:      0  0000000
 52:      0  0000000
 53:      0  0000000
 54:      0  0000000
 55:      0  0000000
 56:      0  0000000
 57:      0  0000000
 58:      0  0000000
 59:      0  0000000
 60:      0  0000000
 61:      0  0000000
 62:      0  0000000
 63:      0  0000000
///////////////////////////////


///// Print heap (      18) /////
  1:    928  0002283
  2:    925  0001c9c
  3:    856  0001435
  4:    918  000046e
  5:    877  0001cc2
  6:    549  000191c
  7:    770  0001f5c
  8:    805  0000a05
  9:    821  000137e
 10:    319  0001d75
 11:    794  0001b1e
 12:    461  000104c
 13:    496  0001d6c
 14:     83  00006c8
 15:    586  0001a1b
 16:    257  000022f
 17:    459  00025b4
 18:    450  00025b0
 19:      0  0000000
 20:      0  0000000
 21:      0  0000000
 22:      0  0000000
 23:      0  0000000
 24:      0  0000000
 25:      0  0000000
 26:      0  0000000
 27:      0  0000000
 28:      0  0000000
 29:      0  0000000
 30:      0  0000000
 31:      0  0000000
 32:      0  0000000
 33:      0  0000000
 34:      0  0000000
 35:      0  0000000
 36:      0  0000000
 37:      0  0000000
 38:      0  0000000
 39:      0  0000000
 40:      0  0000000
 41:      0  0000000
 42:      0  0000000
 43:      0  0000000
 44:      0  0000000
 45:      0  0000000
 46:      0  0000000
 47:      0  0000000
 48:      0  0000000
 49:      0  0000000
 50:      0  0000000
 51:      0  0000000
 52:      0  0000000
 53:      0  0000000
 54:      0  0000000
 55:      0  0000000
 56:      0  0000000
 57:      0  0000000
 58:      0  0000000
 59:      0  0000000
 60:      0  0000000
 61:      0  0000000
 62:      0  0000000
 63:      0  0000000
///////////////////////////////


///// Print heap (      19) /////
  1:    928  0002283
  2:    925  0001c9c
  3:    856  0001435
  4:    918  000046e
  5:    877  0001cc2
  6:    549  000191c
  7:    770  0001f5c
  8:    805  0000a05
  9:    851  0000228
 10:    319  0001d75
 11:    794  0001b1e
 12:    461  000104c
 13:    496  0001d6c
 14:     83  00006c8
 15:    586  0001a1b
 16:    257  000022f
 17:    459  00025b4
 18:    450  00025b0
 19:    821  000137e
 20:      0  0000000
 21:      0  0000000
 22:      0  0000000
 23:      0  0000000
 24:      0  0000000
 25:      0  0000000
 26:      0  0000000
 27:      0  0000000
 28:      0  0000000
 29:      0  0000000
 30:      0  0000000
 31:      0  0000000
 32:      0  0000000
 33:      0  0000000
 34:      0  0000000
 35:      0  0000000
 36:      0  0000000
 37:      0  0000000
 38:      0  0000000
 39:      0  0000000
 40:      0  0000000
 41:      0  0000000
 42:      0  0000000
 43:      0  0000000
 44:      0  0000000
 45:      0  0000000
 46:      0  0000000
 47:      0  0000000
 48:      0  0000000
 49:      0  0000000
 50:      0  0000000
 51:      0  0000000
 52:      0  0000000
 53:      0  0000000
 54:      0  0000000
 55:      0  0000000
 56:      0  0000000
 57:      0  0000000
 58:      0  0000000
 59:      0  0000000
 60:      0  0000000
 61:      0  0000000
 62:      0  0000000
 63:      0  0000000
///////////////////////////////


///// Print heap (      20) /////
  1:    968  00012d6
  2:    928  0002283
  3:    856  0001435
  4:    918  000046e
  5:    925  0001c9c
  6:    549  000191c
  7:    770  0001f5c
  8:    805  0000a05
  9:    851  0000228
 10:    877  0001cc2
 11:    794  0001b1e
 12:    461  000104c
 13:    496  0001d6c
 14:     83  00006c8
 15:    586  0001a1b
 16:    257  000022f
 17:    459  00025b4
 18:    450  00025b0
 19:    821  000137e
 20:    319  0001d75
 21:      0  0000000
 22:      0  0000000
 23:      0  0000000
 24:      0  0000000
 25:      0  0000000
 26:      0  0000000
 27:      0  0000000
 28:      0  0000000
 29:      0  0000000
 30:      0  0000000
 31:      0  0000000
 32:      0  0000000
 33:      0  0000000
 34:      0  0000000
 35:      0  0000000
 36:      0  0000000
 37:      0  0000000
 38:      0  0000000
 39:      0  0000000
 40:      0  0000000
 41:      0  0000000
 42:      0  0000000
 43:      0  0000000
 44:      0  0000000
 45:      0  0000000
 46:      0  0000000
 47:      0  0000000
 48:      0  0000000
 49:      0  0000000
 50:      0  0000000
 51:      0  0000000
 52:      0  0000000
 53:      0  0000000
 54:      0  0000000
 55:      0  0000000
 56:      0  0000000
 57:      0  0000000
 58:      0  0000000
 59:      0  0000000
 60:      0  0000000
 61:      0  0000000
 62:      0  0000000
 63:      0  0000000
///////////////////////////////


///// Print heap (      21) /////
  1:    968  00012d6
  2:    928  0002283
  3:    856  0001435
  4:    918  000046e
  5:    925  0001c9c
  6:    549  000191c
  7:    770  0001f5c
  8:    805  0000a05
  9:    851  0000228
 10:    877  0001cc2
 11:    794  0001b1e
 12:    461  000104c
 13:    496  0001d6c
 14:     83  00006c8
 15:    586  0001a1b
 16:    257  000022f
 17:    459  00025b4
 18:    450  00025b0
 19:    821  000137e
 20:    319  0001d75
